Circuito1_POS/Tabla1_POS_tb.vcd
$date
	Sat Aug 01 20:40:56 2020
$end
$version
	Icarus Verilog
$end
$timescale
	1ps
$end
$scope module gates $end
$var wire 1 ! F $end
$var wire 1 " a3 $end
$var wire 1 # a4 $end
$var wire 1 $ a5 $end
$var wire 1 % n0 $end
$var wire 1 & n1 $end
$var wire 1 ' n2 $end
$var reg 1 ( inA $end
$var reg 1 ) inB $end
$var reg 1 * inC $end
$upscope $end
$enddefinitions $end
#0
$dumpvars
0*
0)
0(
1'
1&
1%
1$
1#
1"
1!
$end
#1
0!
0"
0'
1*
#2
1!
1'
1"
0&
0*
1)
#3
0!
0#
0'
1*
#4
1!
1'
1&
1#
0%
0*
0)
1(
#5
0'
1*
#6
0!
0$
1'
0&
0*
1)
#7
1!
1$
0'
1*
